Data_Wrangling_2.utf8
…
This is not a terribly interesting dataset until we start to evaluate some of the differences. It’s also setup in a way to let us easily group by different variables. We could ask a simple question: how does highway total catch vary across species (ignoring gear differences)?

First we can use group_by. Notice the new information at the top of the output.

by_spp <- group_by(tidydat, Species)
by_spp

## # A tibble: 17,064 x 8
## # Groups:   Species [6]
##    OBJECTID Reference     Sampling_Date    yr  Gear ExDate              Species  Count
##       <dbl> <chr>         <date>        <dbl> <dbl> <dttm>              <chr>    <dbl>
##  1  1550020 TBM1996032006 1996-03-20     1996   300 2018-04-12 10:27:38 Bluefish     0
##  2  1550749 TBM1996032004 1996-03-20     1996    22 2018-04-12 10:25:23 Bluefish     0
##  3  1550750 TBM1996032004 1996-03-20     1996    22 2018-04-12 10:25:23 Bluefish     0
##  4  1550762 TBM1996032207 1996-03-22     1996    20 2018-04-12 10:25:23 Bluefish     0
##  5  1550828 TBM1996042601 1996-04-26     1996   160 2018-04-12 10:25:23 Bluefish     0
##  6  1550838 TBM1996051312 1996-05-13     1996   300 2018-04-12 10:25:23 Bluefish     0
##  7  1550842 TBM1996051407 1996-05-14     1996   300 2018-04-12 10:25:23 Bluefish     0
##  8  1551131 TBM1996051415 1996-05-14     1996   300 2018-04-12 10:27:38 Bluefish     0
##  9  1551311 TBM1996032209 1996-03-22     1996   300 2018-04-12 10:25:20 Bluefish     0
## 10  1551335 TBM1996041807 1996-04-18     1996    22 2018-04-12 10:25:24 Bluefish     0
## # ... with 17,054 more rows
…
